<svg xmlns="http://www.w3.org/2000/svg" width="233.312" height="56.091" viewBox="0 0 233.312 56.091">
  <path id="Path_193" data-name="Path 193" d="M220.117,102.4c-.211-.859.211-1.436.952-1.386l6.189.408a1.217,1.217,0,0,1,.952.886q2.275,10.12,4.549,19.948h.211q4.1-10.2,8.2-19.86a.928.928,0,0,1,.9-.559l.952.065a.98.98,0,0,1,.9.675q4.1,10.106,8.2,19.668h.212q2.273-9.2,4.548-18.12a1,1,0,0,1,.952-.685l6.188.409a.969.969,0,0,1,.952,1.308q-5,17.138-10,35.542a1.114,1.114,0,0,1-.952.818l-.846.058a.985.985,0,0,1-.9-.536q-4.84-10.789-9.679-22.324l-.159,0q-4.814,11.433-9.626,23.606a1.173,1.173,0,0,1-.9.7l-.846.058a.954.954,0,0,1-.952-.755q-5-19.327-10-39.92m61.489,3.682c9.364.792,16.855,7.936,16.855,16.025s-7.492,15.154-16.855,15.944S264.8,131.781,264.8,122.113s7.445-16.823,16.808-16.032m0,24.864c5.15-.242,9.364-4.238,9.364-8.837,0-4.641-4.214-8.68-9.364-8.923a8.89,8.89,0,1,0,0,17.76m33.26-22.2c7.938.792,14.289,6.747,14.289,13.359s-6.351,12.5-14.289,13.291-14.25-5.095-14.25-13.285,6.311-14.157,14.25-13.366m0,20.728c4.366-.243,7.938-3.574,7.938-7.367,0-3.829-3.572-7.195-7.938-7.438a7.418,7.418,0,1,0,0,14.805m17.976-18.55c0-.336.425-.671.9-.706l5.628-.419c.52-.039.9.25.9.6v8.885l13.526-.227v-9.608a.9.9,0,0,1,.9-.791l5.628-.419a.792.792,0,0,1,.9.687v26.285a.792.792,0,0,1-.9.687l-5.628-.419a.9.9,0,0,1-.9-.791V124.658l-13.526-.2v9.271c0,.353-.378.643-.9.6l-5.628-.419c-.473-.036-.9-.37-.9-.707Zm47.94-4.873c9.458-.858,17.024,6.311,17.024,16.068s-7.567,16.828-17.024,15.972-16.978-7.934-16.978-15.98,7.52-15.2,16.978-16.061m0,24.92a8.917,8.917,0,1,0,0-17.8c-5.155.261-9.412,4.31-9.412,8.942,0,4.591,4.257,8.6,9.412,8.858m42.282-29.8c12.459-.949,22.427,8.4,22.427,20.966a20.45,20.45,0,0,1-22.427,20.843c-12.46-.947-22.366-10.181-22.366-20.85s9.906-20.01,22.366-20.959m0,32.518a11.642,11.642,0,1,0,0-23.227c-6.791.289-12.4,5.572-12.4,11.669,0,6.042,5.607,11.269,12.4,11.558m30.311-39.83a6.936,6.936,0,0,1-2,4.912,6.757,6.757,0,0,1-2.188,1.471,6.874,6.874,0,0,1-2.715.535,7.156,7.156,0,0,1-2.76-.517,6.384,6.384,0,0,1-2.152-1.435,6.578,6.578,0,0,1-1.407-2.179,7.294,7.294,0,0,1-.509-2.751,6.841,6.841,0,0,1,6.9-6.9,7.162,7.162,0,0,1,2.76.518,6.373,6.373,0,0,1,3.568,3.6,7.336,7.336,0,0,1,.5,2.742m-1.344.109a6.5,6.5,0,0,0-.418-2.379,5.474,5.474,0,0,0-1.153-1.834,5,5,0,0,0-1.743-1.171,5.716,5.716,0,0,0-2.17-.409,5.565,5.565,0,0,0-2.279.454,5.334,5.334,0,0,0-1.753,1.226,5.524,5.524,0,0,0-1.126,1.788,5.855,5.855,0,0,0-.4,2.161,6.5,6.5,0,0,0,.418,2.379,5.453,5.453,0,0,0,1.153,1.834,5.032,5.032,0,0,0,1.734,1.171,5.708,5.708,0,0,0,2.179.408,5.616,5.616,0,0,0,2.3-.453,5.362,5.362,0,0,0,1.753-1.226,5.422,5.422,0,0,0,1.117-1.789,5.971,5.971,0,0,0,.391-2.161m-2.325,3.4a.4.4,0,0,1-.018.127.147.147,0,0,1-.108.082,1.561,1.561,0,0,1-.263.045q-.173.018-.481.018a4.19,4.19,0,0,1-.427-.018,1.016,1.016,0,0,1-.281-.064.46.46,0,0,1-.173-.118.515.515,0,0,1-.1-.2l-.4-1.289a2.213,2.213,0,0,0-.581-1.017,1.576,1.576,0,0,0-1.036-.291h-.508v2.687a.251.251,0,0,1-.127.236,1.569,1.569,0,0,1-.618.073,1.8,1.8,0,0,1-.653-.073.246.246,0,0,1-.145-.236v-6.7a.842.842,0,0,1,.173-.553.654.654,0,0,1,.535-.209h1.943a5.233,5.233,0,0,1,1.316.145,2.541,2.541,0,0,1,.917.426,1.7,1.7,0,0,1,.536.69,2.336,2.336,0,0,1,.173.917A1.853,1.853,0,0,1,448.9,93.4a2.689,2.689,0,0,1-1.28.681,2.233,2.233,0,0,1,.817.5,2.978,2.978,0,0,1,.672,1.062l.472,1.235a2.308,2.308,0,0,1,.126.472m-2.015-5.139a1.285,1.285,0,0,0-.064-.409.771.771,0,0,0-.227-.335,1.141,1.141,0,0,0-.444-.227,2.633,2.633,0,0,0-.718-.082h-.908v2.215h.871a1.653,1.653,0,0,0,1.171-.318,1.139,1.139,0,0,0,.318-.844" transform="translate(-220.062 -86.985)" fill="#515bde"/>
</svg>
